พระราชบัญญัติควบคุมอาคาร พ.ศ. 2522
พระราชบัญญัติควบคุมอาคาร (ฉบับที่ 2) พ.ศ. 2535
พระราชบัญญัติควบคุมอาคาร (ฉบับที่ 3) พ.ศ. 2543
พระราชบัญญัติควบคุมอาคาร (ฉบับที่ 4) พ.ศ. 2550
พระราชบัญญัติควบคุมอาคาร (ฉบับที่ 5) พ.ศ. 2558